[
    {
        "id": 1,
        "russian": "Б б",
        "dutch": "B"
    },
    {
        "id": 2,
        "russian": "А а",
        "dutch": "A"
    },
    {
        "id": 3,
        "russian": "В в",
        "dutch": "V"
    },
    {
        "id": 4,
        "russian": "Г г",
        "dutch": "G"
    },
    {
        "id": 5,
        "russian": "Д д",
        "dutch": "D"
    },
    {
        "id": 6,
        "russian": "Е е",
        "dutch": "Ye"
    },
    {
        "id": 7,
        "russian": "Ё ё",
        "dutch": "Yo"
    },
    {
        "id": 8,
        "russian": "Ж ж",
        "dutch": "Zh"
    },
    {
        "id": 9,
        "russian": "З з",
        "dutch": "Z"
    },
    {
        "id": 10,
        "russian": "И и",
        "dutch": "Ee (long)"
    },
    {
        "id": 11,
        "russian": "Й й",
        "dutch": "Ee (short)"
    },
    {
        "id": 12,
        "russian": "К к",
        "dutch": "K"
    },
    {
        "id": 13,
        "russian": "Л л",
        "dutch": "l"
    },
    {
        "id": 14,
        "russian": "М м",
        "dutch": "m"
    },
    {
        "id": 15,
        "russian": "Н н",
        "dutch": "n"
    },
    {
        "id": 16,
        "russian": "О о",
        "dutch": "O"
    },
    {
        "id": 17,
        "russian": "П п",
        "dutch": "P"
    },
    {
        "id": 18,
        "russian": "Р р",
        "dutch": "r"
    },
    {
        "id": 19,
        "russian": "С с",
        "dutch": "s"
    },
    {
        "id": 20,
        "russian": "Т т",
        "dutch": "T"
    },
    {
        "id": 21,
        "russian": "У у",
        "dutch": "Oo"
    },
    {
        "id": 22,
        "russian": "Ф ф",
        "dutch": "f"
    },
    {
        "id": 23,
        "russian": "Х х",
        "dutch": "Kh"
    },
    {
        "id": 24,
        "russian": "Ц ц",
        "dutch": "Ts"
    },
    {
        "id": 25,
        "russian": "Ч ч",
        "dutch": "Ch"
    },
    {
        "id": 26,
        "russian": "Ш ш",
        "dutch": "Sh"
    },
    {
        "id": 27,
        "russian": "Щ щ",
        "dutch": "Shch"
    },
    {
        "id": 28,
        "russian": "Ъ ъ",
        "dutch": "Tviordiy znak"
    },
    {
        "id": 29,
        "russian": "Ы ы",
        "dutch": "I"
    },
    {
        "id": 30,
        "russian": "Ь ь",
        "dutch": "Myagkiy znak"
    },
    {
        "id": 31,
        "russian": "Э э",
        "dutch": "E"
    },
    {
        "id": 32,
        "russian": "Ю ю",
        "dutch": "Yoo"
    },
    {
        "id": 33,
        "russian": "Я я",
        "dutch": "Ya"
    }
]